../Core/Src/main.c:180:6:SystemClock_Config	120	static,ignoring_inline_asm
../Core/Src/main.c:68:5:main	144	static
../Core/Src/main.c:237:6:HAL_TIM_PeriodElapsedCallback	0	static
../Core/Src/main.c:252:6:Error_Handler	0	static,ignoring_inline_asm
