../Core/Src/tim.c:439:13:pump_up	8	static
../Core/Src/tim.c:238:6:HAL_TIM_Base_MspInit	32	static
../Core/Src/tim.c:131:6:MX_TIM2_Init	40	static
../Core/Src/tim.c:299:6:HAL_TIM_MspPostInit	40	static
../Core/Src/tim.c:53:6:MX_TIM1_Init	112	static
../Core/Src/tim.c:171:6:MX_TIM3_Init	64	static
../Core/Src/tim.c:357:6:HAL_TIM_Base_MspDeInit	0	static
../Core/Src/tim.c:418:6:init_motors	8	static
../Core/Src/tim.c:433:6:stop_pumps_and_timer	8	static
../Core/Src/tim.c:402:19:cmd_motors	32	static
