../Core/Src/fdcan.c:57:6:MX_FDCAN1_Init	8	static
../Core/Src/fdcan.c:106:6:HAL_FDCAN_MspInit	232	static
../Core/Src/fdcan.c:147:6:HAL_FDCAN_MspDeInit	16	static
../Core/Src/fdcan.c:172:23:setup_tx_header	64	static
../Core/Src/fdcan.c:189:19:tx_data	40	static
../Core/Src/fdcan.c:270:19:rx_data	72	static
../Core/Src/fdcan.c:305:6:convert_float_to_3_bytes	32	static
../Core/Src/fdcan.c:330:10:convert_to_thruster_pwm_scale	24	static
../Core/Src/fdcan.c:346:10:convert_to_servo_pwm_scale	24	static
../Core/Src/fdcan.c:362:26:send_packet_of_floats	32	static
../Core/Src/fdcan.c:378:6:send_error_code	56	static
