../Core/Src/sensors.c:127:19:init_all_sensors	24	static
../Core/Src/sensors.c:164:26:reset_temperature_sensor	24	static
../Core/Src/sensors.c:175:26:reset_abs_pressure_sensor	24	static
../Core/Src/sensors.c:185:26:init_accel_gyro_sensor	40	static
../Core/Src/sensors.c:209:26:init_temperature_sensor	24	static
../Core/Src/sensors.c:232:26:init_abs_pressure_sensor	24	static
../Core/Src/sensors.c:253:26:get_temperature_sensor_coeffs	40	static
../Core/Src/sensors.c:300:26:get_abs_pressure_sensor_coeffs	40	static
../Core/Src/sensors.c:345:19:read_all_sensors	32	static
../Core/Src/sensors.c:420:26:read_from_accel_gyro_sensor	56	static
../Core/Src/sensors.c:468:26:read_from_temperature_sensor	48	static
../Core/Src/sensors.c:513:26:read_temperature_and_pressure_from_diff_pressure_sensor	40	static
../Core/Src/sensors.c:563:26:read_temperature_and_pressure_from_abs_pressure_sensor	56	static
../Core/Src/sensors.c:631:26:read_from_accel_gyro_sensor_with_i2c	48	static
../Core/Src/sensors.c:654:26:read_from_temperature_sensor_with_i2c	32	static
../Core/Src/sensors.c:701:26:read_from_diff_pressure_sensor_with_i2c	40	static
../Core/Src/sensors.c:737:26:read_from_abs_pressure_sensor_with_i2c	32	static
../Core/Src/sensors.c:782:19:is_there_sensor_error	16	static
../Core/Src/sensors.c:796:19:reinit_problem_sensors	24	static
../Core/Src/sensors.c:846:10:convert_twos_comp_to_dec	16	static
../Core/Src/sensors.c:851:26:check_accel_gyro_data	16	static
