../Core/Src/tim.c:52:6:MX_TIM1_Init	112	static
../Core/Src/tim.c:130:6:MX_TIM2_Init	40	static
../Core/Src/tim.c:171:6:MX_TIM3_Init	64	static
../Core/Src/tim.c:238:6:HAL_TIM_Base_MspInit	32	static
../Core/Src/tim.c:299:6:HAL_TIM_MspPostInit	48	static
../Core/Src/tim.c:357:6:HAL_TIM_Base_MspDeInit	16	static
../Core/Src/tim.c:402:19:cmd_motors	24	static
../Core/Src/tim.c:418:6:init_motors	8	static
../Core/Src/tim.c:433:6:stop_pumps_and_timer	8	static
../Core/Src/tim.c:441:6:pump_up	8	static
../Core/Src/tim.c:447:13:pump_down	8	static
../Core/Src/tim.c:453:26:rudder_control	24	static
../Core/Src/tim.c:480:26:buoyancy_control	24	static
../Core/Src/tim.c:556:26:restart_buoyancy_timer	8	static
../Core/Src/tim.c:562:13:update_tank_percent	40	static
